[
 {
     "cmd": "measure_paths",
     "get_samples": true,
     "nsamps": 1024,
     "freq": 3400e6,
     "txgain": 85,
     "rxgain": 70,
     "rate": 20e6,
     "wampl": 0.9,
     "freq_step": 5e5,
     "time_step": 2,
     "timeout": 90,
     "client_list": ["all"]
 }
]
